[
  "Afganistan"
  ,
  "Afrika Selatan"
  ,
  "Aksen Asing"
  ,
  "Albania"
  ,
  "Aljazair"
  ,
  "Amerika Serikat"
  ,
  "Andorra"
  ,
  "Angola"
  ,
  "Anguilla"
  ,
  "Antartika"
  ,
  "Antigua dan Barbuda"
  ,
  "Arab Saudi"
  ,
  "Argentina"
  ,
  "Armenia"
  ,
  "Aruba"
  ,
  "Australia"
  ,
  "Austria"
  ,
  "Azerbaijan"
  ,
  "Bahama"
  ,
  "Bahrain"
  ,
  "Bangladesh"
  ,
  "Barbados"
  ,
  "Belanda"
  ,
  "Belanda Karibia"
  ,
  "Belarus"
  ,
  "Belgia"
  ,
  "Belize"
  ,
  "Benin"
  ,
  "Bermuda"
  ,
  "Bhutan"
  ,
  "Bolivia"
  ,
  "Bosnia dan Herzegovina"
  ,
  "Botswana"
  ,
  "Brasil"
  ,
  "Brunei"
  ,
  "Bulgaria"
  ,
  "Burkina Faso"
  ,
  "Burundi"
  ,
  "Cad"
  ,
  "Ceko"
  ,
  "Ceuta dan Melilla"
  ,
  "Cile"
  ,
  "Curacao"
  ,
  "Denmark"
  ,
  "Diego Garcia"
  ,
  "Dominika"
  ,
  "Ekuador"
  ,
  "El Salvador"
  ,
  "Eritrea"
  ,
  "Estonia"
  ,
  "eSwatini"
  ,
  "Etiopia"
  ,
  "Fiji"
  ,
  "Filipina"
  ,
  "Finlandia"
  ,
  "Gabon"
  ,
  "Gambia"
  ,
  "Georgia"
  ,
  "Georgia Selatan & Kep. Sandwich Selatan"
  ,
  "Ghana"
  ,
  "Gibraltar"
  ,
  "Grenada"
  ,
  "Grinlandia"
  ,
  "Guadeloupe"
  ,
  "Guam"
  ,
  "Guatemala"
  ,
  "Guernsey"
  ,
  "Guinea"
  ,
  "Guinea Ekuatorial"
  ,
  "Guinea-Bissau"
  ,
  "Guyana"
  ,
  "Guyana Prancis"
  ,
  "Haiti"
  ,
  "Honduras"
  ,
  "Tiongkok"
  ,
  "Hungaria"
  ,
  "India"
  ,
  "Indonesia"
  ,
  "Inggris Raya"
  ,
  "Irak"
  ,
  "Iran"
  ,
  "Irlandia"
  ,
  "Islandia"
  ,
  "Israel"
  ,
  "Italia"
  ,
  "Jamaika"
  ,
  "Jepang"
  ,
  "Jerman"
  ,
  "Jersey"
  ,
  "Jibuti"
  ,
  "Kaledonia Baru"
  ,
  "Kamboja"
  ,
  "Kamerun"
  ,
  "Kanada"
  ,
  "Kazakstan"
  ,
  "Kenya"
  ,
  "Kepulauan Aland"
  ,
  "Kepulauan Canary"
  ,
  "Kepulauan Cayman"
  ,
  "Kepulauan Cocos (Keeling)"
  ,
  "Kepulauan Cook"
  ,
  "Kepulauan Faroe"
  ,
  "Kepulauan Malvinas"
  ,
  "Kepulauan Mariana Utara"
  ,
  "Kepulauan Marshall"
  ,
  "Kepulauan Norfolk"
  ,
  "Kepulauan Pitcairn"
  ,
  "Kepulauan Solomon"
  ,
  "Kepulauan Svalbard dan Jan Mayen"
  ,
  "Kepulauan Terluar A.S."
  ,
  "Kepulauan Turks dan Caicos"
  ,
  "Kepulauan Virgin A.S."
  ,
  "Kepulauan Virgin Inggris"
  ,
  "Kepulauan Wallis dan Futuna"
  ,
  "Kirgistan"
  ,
  "Kiribati"
  ,
  "Kolombia"
  ,
  "Komoro"
  ,
  "Kongo"
  ,
  "Korea Selatan"
  ,
  "Korea Utara"
  ,
  "Kosovo"
  ,
  "Kosta Rika"
  ,
  "Kroasia"
  ,
  "Kuba"
  ,
  "Kuwait"
  ,
  "Laos"
  ,
  "Latvia"
  ,
  "Lebanon"
  ,
  "Lesotho"
  ,
  "Liberia"
  ,
  "Libia"
  ,
  "Liechtenstein"
  ,
  "Lituania"
  ,
  "Luksemburg"
  ,
  "Madagaskar"
  ,
  "Makedonia Utara"
  ,
  "Maladewa"
  ,
  "Malawi"
  ,
  "Malaysia"
  ,
  "Mali"
  ,
  "Malta"
  ,
  "Maroko"
  ,
  "Martinik"
  ,
  "Mauritania"
  ,
  "Mauritius"
  ,
  "Mayotte"
  ,
  "Meksiko"
  ,
  "Mesir"
  ,
  "Mikronesia"
  ,
  "Moldova"
  ,
  "Monako"
  ,
  "Mongolia"
  ,
  "Montenegro"
  ,
  "Montserrat"
  ,
  "Mozambik"
  ,
  "Myanmar (Burma)"
  ,
  "Namibia"
  ,
  "Nauru"
  ,
  "Nepal"
  ,
  "Niger"
  ,
  "Nigeria"
  ,
  "Nikaragua"
  ,
  "Niue"
  ,
  "Norwegia"
  ,
  "Oman"
  ,
  "Pakistan"
  ,
  "Palau"
  ,
  "Panama"
  ,
  "Pantai Gading"
  ,
  "Papua Nugini"
  ,
  "Paraguay"
  ,
  "Peru"
  ,
  "Polandia"
  ,
  "Polinesia Prancis"
  ,
  "Portugal"
  ,
  "Prancis"
  ,
  "Pseudo-Bidi"
  ,
  "Puerto Riko"
  ,
  "Pulau Ascension"
  ,
  "Pulau Christmas"
  ,
  "Pulau Man"
  ,
  "Qatar"
  ,
  "Republik Afrika Tengah"
  ,
  "Republik Dominika"
  ,
  "Reunion"
  ,
  "Rumania"
  ,
  "Rusia"
  ,
  "Rwanda"
  ,
  "Sahara Barat"
  ,
  "Saint Barthelemy"
  ,
  "Saint Helena"
  ,
  "Saint Kitts dan Nevis"
  ,
  "Saint Lucia"
  ,
  "Saint Martin"
  ,
  "Saint Pierre dan Miquelon"
  ,
  "Saint Vincent dan Grenadines"
  ,
  "Samoa"
  ,
  "Samoa Amerika"
  ,
  "San Marino"
  ,
  "Sao Tome dan Principe"
  ,
  "Selandia Baru"
  ,
  "Senegal"
  ,
  "Serbia"
  ,
  "Seychelles"
  ,
  "Sierra Leone"
  ,
  "Singapura"
  ,
  "Sint Maarten"
  ,
  "Siprus"
  ,
  "Slovakia"
  ,
  "Slovenia"
  ,
  "Somalia"
  ,
  "Spanyol"
  ,
  "Sri Lanka"
  ,
  "Sudan"
  ,
  "Sudan Selatan"
  ,
  "Suriah"
  ,
  "Suriname"
  ,
  "Swedia"
  ,
  "Swiss"
  ,
  "Taiwan"
  ,
  "Tajikistan"
  ,
  "Tanjung Verde"
  ,
  "Tanzania"
  ,
  "Thailand"
  ,
  "Timor Leste"
  ,
  "Tiongkok"
  ,
  "Togo"
  ,
  "Tokelau"
  ,
  "Tonga"
  ,
  "Trinidad dan Tobago"
  ,
  "Tristan da Cunha"
  ,
  "Tunisia"
  ,
  "Turki"
  ,
  "Turkimenistan"
  ,
  "Tuvalu"
  ,
  "Uganda"
  ,
  "Ukraina"
  ,
  "Uni Emirat Arab"
  ,
  "Uruguay"
  ,
  "Uzbekistan"
  ,
  "Vanuatu"
  ,
  "Vatikan"
  ,
  "Venezuela"
  ,
  "Vietnam"
  ,
  "Inggris"
  ,
  "Prancis"
  ,
  "Palestina"
  ,
  "Yaman"
  ,
  "Yordania"
  ,
  "Yunani"
  ,
  "Zambia"
  ,
  "Zimbabwe"
  
]